A-twitter-data-collection.utf8
…
## Warning in countrycode(country_language_dist$country_code, origin = "iso2c", : Some values were not matched unambiguously:

country_language_dist$country <- country_vector

#Reordering and renaming columns
country_language_dist <- country_language_dist[,c("country", "country_code", "lang", "n_tweets")]
colnames(country_language_dist) <- c("country", "country_code", "language", "n_tweets")

# Which countries produced the least tweets?
country_language_dist %>%
  group_by(country) %>%
  summarise(no_of_tweets = sum(n_tweets), .groups = "drop") %>%
  arrange(no_of_tweets)

## # A tibble: 56 x 2
##    country       no_of_tweets
##    <chr>                <int>
##  1 Greenland                1
##  2 Vatican City             1
##  3 Jersey                   2
##  4 San Marino               2
##  5 Guernsey                 6
##  6 Liechtenstein            6
##  7 Faroe Islands           10
##  8 Monaco                  10
##  9 <NA>                    20
## 10 Gibraltar               34
## #  with 46 more rows

# Which countries produced the most tweets?
country_language_dist %>%
  group_by(country) %>%
  summarise(no_of_tweets = sum(n_tweets), .groups = "drop") %>%
  arrange(desc(no_of_tweets))

## # A tibble: 56 x 2
##    country        no_of_tweets
##    <chr>                 <int>
##  1 United Kingdom        50913
##  2 Turkey                24964
##  3 Spain                 20612
##  4 France                16014
##  5 Germany                7877
##  6 Italy                  7865
##  7 Netherlands            5975
##  8 Ireland                3769
##  9 Portugal               2928
## 10 Poland                 2789
## #  with 46 more rows
…
